0 5558
1 61287
2 2239
3 57873
4 64459
5 5574
6 61295
7 2249
8 57896
9 64462
10 5566
11 61302
12 2244
13 57870
14 64450
15 5560
16 61287
17 2239
18 57876
19 64466
20 5574
21 61298
22 2249
23 57886
24 64461
25 5564
26 61287
27 2239
28 57876
29 64449
30 5573
31 61302
32 2248
33 57883
34 64464
35 5577
36 61302
37 2237
38 57870
39 64454
40 5557
41 61284
42 2239
43 57877
44 64463
45 5570
46 61295
47 2240
48 57875
49 64452
50 5560
51 61287
52 2237
53 57875
54 64452
55 5560
56 61291
57 2245
58 57885
59 64454
60 5561
61 61298
62 2239
63 57870
64 64450
65 5561
66 61287
67 2239
68 57884
69 64462
70 5572
71 61302
72 2239
73 57871
74 64452
75 5558
76 61280
77 2227
78 57870
79 64454
80 5562
81 61291
82 2239
83 57882
84 64457
85 5555
86 61287
87 2225
88 57857
89 64449
90 5548
91 61276
92 2231
93 57873
94 64454
95 5559
96 61290
97 2238
98 57870
99 64445
100 5547
101 61276
102 2227
103 57866
104 64445
105 5551
106 61287
107 2243
108 57877
109 64452
110 5560
111 61291
112 2231
113 57862
114 64445
115 5552
116 61280
117 2231
118 57870
119 64454
120 5561
121 61287
122 2232
123 57872
124 64448
125 5552
126 61280
127 2234
128 57873
129 64452
130 5557
131 61291
132 2242
133 57881
134 64461
135 5556
136 61280
137 2227
138 57860
139 64445
140 5554
141 61276
142 2229
143 57874
144 64457
145 5561
146 61294
147 2242
148 57866
149 64444
150 5552
151 61280
152 2229
153 57874
154 64452
155 5555
156 61284
157 2237
158 57873
159 64456
160 5559
161 61284
162 2229
163 57859
164 64444
165 5557
166 61270
167 2222
168 57869
169 64445
170 5551
171 61280
172 2229
173 57870
174 64442
175 5547
176 61280
177 2224
178 57863
179 64445
180 5554
181 61284
182 2234
183 57873
184 64444
185 5552
186 61287
187 2226
188 57855
189 64436
190 5548
191 61276
192 2226
193 57870
194 64452
195 5556
196 61284
197 2232
198 57871
199 64438
200 5538
201 61272
202 2222
203 57862
204 64440
205 5544
206 61280
207 2231
208 57865
209 64444
210 5552
211 61284
212 2227
213 57859
214 64437
215 5538
216 61270
217 2225
218 57865
219 64437
220 5548
221 61287
222 2224
223 57860
224 64440
225 5539
226 61272
227 2219
228 57855
229 64445
230 5545
231 61273
232 2231
233 57865
234 64440
235 5544
236 61276
237 2221
238 57848
239 64434
240 5542
241 61272
242 2227
243 57865
244 64442
245 5548
246 61276
247 2224
248 57855
249 64432
250 5541
251 61269
252 2220
253 57858
254 64430
255 5539
256 61280
257 2231
258 57868
259 64442
260 5542
261 61272
262 2222
263 57855
264 64430
265 5539
266 61273
267 2221
268 57865
269 64440
270 5542
271 61280
272 2225
273 57856
274 64437
275 5537
276 61265
277 2219
278 57858
279 64440
280 5547
281 61280
282 2234
283 57865
284 64437
285 5548
286 61280
287 2222
288 57852
289 64432
290 5532
291 61262
292 2217
293 57854
294 64436
295 5542
296 61270
297 2217
298 57852
299 64434
300 5538
301 61258
302 2215
303 57862
304 64435
305 5540
306 61276
307 2226
308 57866
309 64444
310 5544
311 61276
312 2220
313 57852
314 64432
315 5538
316 61266
317 2217
318 57858
319 64434
320 5544
321 61273
322 2214
323 57846
324 64428
325 5530
326 61261
327 2214
328 57851
329 64434
330 5540
331 61273
332 2227
333 57862
334 64436
335 5538
336 61269
337 2214
338 57849
339 64430
340 5530
341 61258
342 2219
343 57854
344 64434
345 5548
346 61280
347 2222
348 57852
349 64429
350 5537
351 61262
352 2214
353 57850
354 64430
355 5538
356 61272
357 2227
358 57865
359 64434
360 5542
361 61276
362 2217
363 57848
364 64427
365 5531
366 61265
367 2216
368 57850
369 64432
370 5541
371 61273
372 2216
373 57847
374 64420
375 5523
376 61254
377 2207
378 57843
379 64422
380 5532
381 61266
382 2217
383 57863
384 64434
385 5533
386 61269
387 2204
388 57843
389 64427
390 5524
391 61258
392 2214
393 57850
394 64437
395 5538
396 61265
397 2217
398 57855
399 64426
400 5523
401 61251
402 2199
403 57839
404 64422
405 5532
406 61270
407 2219
408 57859
409 64438
410 5538
411 61269
412 2212
413 57841
414 64424
415 5522
416 61255
417 2211
418 57842
419 64424
420 5539
421 61262
422 2207
423 57842
424 64424
425 5521
426 61247
427 2202
428 57839
429 64420
430 5532
431 61262
432 2220
433 57854
434 64426
435 5537
436 61269
437 2212
438 57836
439 64417
440 5526
441 61251
442 2207
443 57848
444 64427
445 5534
446 61265
447 2217
448 57847
449 64415
450 5525
451 61251
452 2202
453 57839
454 64417
455 5529
456 61262
457 2209
458 57848
459 64426
460 5535
461 61265
462 2204
463 57836
464 64415
465 5524
466 61251
467 2204
468 57850
469 64424
470 5531
471 61266
472 2206
473 57841
474 64415
475 5518
476 61251
477 2199
478 57844
479 64424
480 5522
481 61261
482 2220
483 57851
484 64426
485 5528
486 61258
487 2201
488 57832
489 64412
490 5518
491 61255
492 2206
493 57843
494 64420
495 5523
496 61261
497 2212
498 57841
499 64416
500 5525
501 61255
502 2198
503 57835
504 64418
505 5526
506 61255
507 2212
508 57850
509 64425
510 5528
511 61257
512 2207
513 57837
514 64412
515 5516
516 61251
517 2202
518 57839
519 64417
520 5525
521 61262
522 2206
523 57836
524 64414
525 5519
526 61251
527 2201
528 57835
529 64417
530 5526
531 61251
532 2207
533 57843
534 64412
535 5516
536 61254
537 2202
538 57833
539 64410
540 5521
541 61251
542 2201
543 57835
544 64418
545 5527
546 61251
547 2199
548 57833
549 64408
550 5516
551 61243
552 2199
553 57839
554 64411
555 5522
556 61255
557 2209
558 57850
559 64417
560 5524
561 61261
562 2198
563 57826
564 64405
565 5515
566 61247
567 2199
568 57836
569 64415
570 5523
571 61258
572 2202
573 57833
574 64410
575 5515
576 61239
577 2191
578 57832
579 64407
580 5521
581 61259
582 2203
583 57844
584 64417
585 5516
586 61254
587 2199
588 57830
589 64407
590 5512
591 61240
592 2191
593 57837
594 64412
595 5518
596 61258
597 2197
598 57832
599 64414
600 5511
601 61247
602 2196
603 57828
604 64410
605 5517
606 61251
607 2207
608 57844
609 64415
610 5515
611 61254
612 2196
613 57819
614 64407
615 5510
616 61243
617 2202
618 57835
619 64414
620 5523
621 61251
622 2199
623 57826
624 64402
625 5504
626 61233
627 2188
628 57827
629 64407
630 5519
631 61255
632 2209
633 57842
634 64403
635 5512
636 61247
637 2184
638 57816
639 64400
640 5506
641 61233
642 2188
643 57829
644 64412
645 5518
646 61251
647 2202
648 57830
649 64403
650 5509
651 61232
652 2182
653 57825
654 64401
655 5508
656 61240
657 2194
658 57839
659 64412
660 5516
661 61251
662 2188
663 57814
664 64397
665 5498
666 61232
667 2194
668 57834
669 64405
670 5509
671 61246
672 2199
673 57826
674 64394
675 5504
676 61232
677 2181
678 57818
679 64398
680 5502
681 61243
682 2201
683 57832
684 64407
685 5512
686 61236
687 2184
688 57814
689 64392
690 5504
691 61233
692 2188
693 57827
694 64401
695 5509
696 61243
697 2197
698 57825
699 64397
700 5498
701 61229
702 2186
703 57820
704 64400
705 5512
706 61240
707 2197
708 57835
709 64403
710 5508
711 61243
712 2194
713 57818
714 64398
715 5503
716 61225
717 2184
718 57825
719 64398
720 5508
721 61239
722 2189
723 57818
724 64392
725 5497
726 61228
727 2186
728 57820
729 64398
730 5510
731 61233
732 2189
733 57829
734 64398
735 5512
736 61239
737 2178
738 57811
739 64390
740 5496
741 61222
742 2181
743 57822
744 64405
745 5515
746 61239
747 2193
748 57827
749 64397
750 5496
751 61224
752 2181
753 57816
754 64385
755 5502
756 61237
757 2191
758 57829
759 64405
760 5511
761 61236
762 2178
763 57810
764 64385
765 5493
766 61229
767 2184
768 57821
769 64397
770 5503
771 61239
772 2187
773 57814
774 64387
775 5495
776 61221
777 2179
778 57817
779 64385
780 5498
781 61236
782 2186
783 57825
784 64394
785 5495
786 61228
787 2173
788 57803
789 64378
790 5486
791 61222
792 2178
793 57813
794 64392
795 5498
796 61232
797 2184
798 57814
799 64382
800 5481
801 61217
802 2176
803 57809
804 64385
805 5497
806 61233
807 2188
808 57824
809 64397
810 5502
811 61229
812 2176
813 57813
814 64385
815 5488
816 61218
817 2179
818 57821
819 64394
820 5501
821 61233
822 2171
823 57808
824 64383
825 5481
826 61214
827 2171
828 57809
829 64383
830 5490
831 61233
832 2187
833 57829
834 64398
835 5496
836 61229
837 2168
838 57804
839 64382
840 5489
841 61224
842 2173
843 57814
844 64387
845 5489
846 61232
847 2182
848 57808
849 64380
850 5484
851 61217
852 2173
853 57809
854 64383
855 5494
856 61229
857 2173
858 57816
859 64395
860 5493
861 61228
862 2171
863 57800
864 64380
865 5482
866 61218
867 2171
868 57810
869 64388
870 5487
871 61224
872 2179
873 57803
874 64374
875 5483
876 61210
877 2159
878 57799
879 64385
880 5492
881 61225
882 2178
883 57821
884 64392
885 5495
886 61224
887 2171
888 57807
889 64380
890 5480
891 61215
892 2166
893 57806
894 64385
895 5487
896 61228
897 2178
898 57803
899 64378
900 5481
901 61214
902 2168
903 57802
904 64373
905 5482
906 61224
907 2184
908 57816
909 64383
910 5491
911 61224
912 2168
913 57799
914 64373
915 5482
916 61211
917 2168
918 57809
919 64380
920 5489
921 61224
922 2174
923 57807
924 64375
925 5473
926 61206
927 2159
928 57799
929 64371
930 5477
931 61225
932 2181
933 57813
934 64387
935 5491
936 61228
937 2173
938 57799
939 64371
940 5472
941 61210
942 2171
943 57805
944 64385
945 5494
946 61225
947 2171
948 57799
949 64375
950 5479
951 61203
952 2156
953 57794
954 64370
955 5484
956 61219
957 2171
958 57819
959 64387
960 5484
961 61224
962 2164
963 57789
964 64370
965 5467
966 61203
967 2166
968 57809
969 64387
970 5484
971 61217
972 2169
973 57800
974 64368
975 5464
976 61199
977 2159
978 57799
979 64375
980 5482
981 61222
982 2183
983 57812
984 64370
985 5480
986 61220
987 2164
988 57788
989 64361
990 5468
991 61203
992 2166
993 57798
994 64377
995 5486
996 61217
997 2174
998 57795
999 64360
1000 5465
1001 61193
1002 2154
1003 57798
1004 64366
1005 5479
1006 61221
1007 2173
1008 57805
1009 64370
1010 5478
1011 61214
1012 2161
1013 57787
1014 64361
1015 5468
1016 61199
1017 2164
1018 57802
1019 64368
1020 5478
1021 61217
1022 2164
1023 57792
