0 64979
1 5349
2 60090
3 432
4 8074
5 64979
6 5349
7 60091
8 431
9 8076
10 64978
11 5349
12 60091
13 431
14 8076
15 64976
16 5348
17 60089
18 430
19 8072
20 64976
21 5348
22 60090
23 431
24 8074
25 64978
26 5348
27 60090
28 430
29 8072
30 64976
31 5347
32 60090
33 430
34 8070
35 64976
36 5348
37 60090
38 430
39 8072
40 64975
41 5347
42 60089
43 430
44 8072
45 64975
46 5347
47 60090
48 430
49 8070
50 64975
51 5347
52 60089
53 429
54 8070
55 64975
56 5347
57 60088
58 429
59 8070
60 64976
61 5347
62 60088
63 429
64 8068
65 64974
66 5345
67 60088
68 429
69 8070
70 64974
71 5346
72 60088
73 429
74 8068
75 64974
76 5346
77 60088
78 429
79 8068
80 64973
81 5345
82 60088
83 428
84 8068
85 64973
86 5345
87 60088
88 428
89 8067
90 64973
91 5345
92 60087
93 427
94 8067
95 64973
96 5345
97 60088
98 427
99 8067
100 64971
101 5344
102 60086
103 427
104 8065
105 64971
106 5344
107 60086
108 427
109 8065
110 64971
111 5344
112 60086
113 427
114 8065
115 64970
116 5344
117 60086
118 426
119 8065
120 64971
121 5344
122 60086
123 426
124 8065
125 64970
126 5344
127 60086
128 426
129 8065
130 64971
131 5344
132 60086
133 426
134 8063
135 64970
136 5344
137 60086
138 426
139 8065
140 64970
141 5343
142 60085
143 426
144 8063
145 64969
146 5343
147 60085
148 425
149 8061
150 64968
151 5343
152 60085
153 425
154 8061
155 64968
156 5343
157 60085
158 425
159 8061
160 64968
161 5341
162 60084
163 423
164 8059
165 64968
166 5343
167 60085
168 424
169 8057
170 64966
171 5341
172 60085
173 424
174 8059
175 64968
176 5341
177 60084
178 423
179 8057
180 64965
181 5341
182 60083
183 422
184 8057
185 64966
186 5340
187 60083
188 423
189 8057
190 64965
191 5340
192 60083
193 422
194 8057
195 64965
196 5340
197 60083
198 423
199 8055
200 64966
201 5340
202 60083
203 423
204 8053
205 64965
206 5339
207 60082
208 423
209 8054
210 64966
211 5339
212 60082
213 423
214 8051
215 64967
216 5339
217 60080
218 424
219 8047
220 64967
221 5339
222 60080
223 425
224 8046
225 64968
226 5339
227 60079
228 427
229 8044
230 64967
231 5339
232 60077
233 428
234 8040
235 64968
236 5340
237 60075
238 429
239 8039
240 64970
241 5341
242 60072
243 430
244 8037
245 64970
246 5343
247 60070
248 432
249 8037
250 64970
251 5344
252 60069
253 433
254 8034
255 64969
256 5345
257 60064
258 435
259 8033
260 64970
261 5347
262 60062
263 437
264 8029
265 64970
266 5349
267 60059
268 437
269 8026
270 64970
271 5352
272 60056
273 440
274 8026
275 64968
276 5354
277 60052
278 441
279 8021
280 64968
281 5357
282 60048
283 443
284 8022
285 64968
286 5359
287 60045
288 446
289 8020
290 64968
291 5362
292 60040
293 446
294 8017
295 64968
296 5366
297 60035
298 448
299 8017
300 64965
301 5369
302 60031
303 452
304 8016
305 64966
306 5373
307 60027
308 454
309 8014
310 64965
311 5376
312 60021
313 455
314 8013
315 64964
316 5381
317 60016
318 458
319 8010
320 64964
321 5385
322 60010
323 460
324 8008
325 64962
326 5390
327 60004
328 462
329 8009
330 64960
331 5394
332 59998
333 465
334 8006
335 64960
336 5398
337 59992
338 467
339 8006
340 64959
341 5404
342 59987
343 470
344 8003
345 64957
346 5410
347 59980
348 473
349 8002
350 64956
351 5415
352 59974
353 477
354 8000
355 64954
356 5421
357 59966
358 480
359 8001
360 64952
361 5426
362 59959
363 482
364 7999
365 64950
366 5433
367 59952
368 485
369 7996
370 64949
371 5440
372 59946
373 489
374 7998
375 64947
376 5447
377 59939
378 492
379 7996
380 64944
381 5452
382 59930
383 495
384 7996
385 64942
386 5460
387 59922
388 500
389 7997
390 64939
391 5467
392 59914
393 502
394 7996
395 64937
396 5474
397 59906
398 506
399 7994
400 64934
401 5481
402 59897
403 511
404 7992
405 64932
406 5489
407 59888
408 514
409 7994
410 64928
411 5496
412 59879
413 516
414 7992
415 64921
416 5505
417 59872
418 520
419 8002
420 64917
421 5516
422 59863
423 512
424 8003
425 64897
426 5525
427 59862
428 517
429 8036
430 64892
431 5544
432 59853
433 479
434 8034
435 64835
436 5552
437 59864
438 482
439 8128
440 64831
441 5592
442 59854
443 368
444 8127
445 64682
446 5601
447 59901
448 372
449 57527
450 64677
451 5704
452 59892
453 14
454 57525
455 64241
456 5713
457 60066
458 16
459 58669
460 64232
461 8185
462 62826
463 2478
464 58657
465 65371
466 8185
467 63001
468 2489
469 58222
470 65370
471 7827
472 62991
473 2591
474 58216
475 80
476 7831
477 63038
478 2600
479 58066
480 79
481 7716
482 63028
483 2640
484 58063
485 173
486 7721
487 63042
488 2649
489 58003
490 171
491 7681
492 63032
493 2667
494 57998
495 205
496 7686
497 63030
498 2677
499 57978
500 205
501 7678
502 63021
503 2687
504 57974
505 213
506 7682
507 63014
508 2696
509 57968
510 212
511 7683
512 63005
513 2705
514 57965
515 212
516 7688
517 62996
518 2712
519 57961
520 214
521 7691
522 62987
523 2720
524 57958
525 214
526 7696
527 62979
528 2728
529 57955
530 214
531 7699
532 62971
533 2735
534 57953
535 212
536 7703
537 62963
538 2742
539 57951
540 212
541 7706
542 62955
543 2748
544 57948
545 211
546 7709
547 62947
548 2755
549 57946
550 211
551 7712
552 62939
553 2762
554 57945
555 211
556 7715
557 62932
558 2768
559 57943
560 211
561 7719
562 62924
563 2774
564 57940
565 209
566 7722
567 62919
568 2780
569 57938
570 206
571 7725
572 62912
573 2785
574 57935
575 206
576 7728
577 62905
578 2791
579 57935
580 204
581 7731
582 62899
583 2796
584 57933
585 203
586 7734
587 62892
588 2801
589 57932
590 205
591 7737
592 62886
593 2807
594 57931
595 202
596 7739
597 62881
598 2812
599 57931
600 201
601 7740
602 62875
603 2815
604 57927
605 199
606 7743
607 62869
608 2820
609 57928
610 198
611 7746
612 62864
613 2825
614 57927
615 197
616 7748
617 62859
618 2828
619 57926
620 194
621 7749
622 62854
623 2831
624 57925
625 193
626 7753
627 62850
628 2835
629 57924
630 192
631 7754
632 62845
633 2839
634 57924
635 191
636 7757
637 62842
638 2841
639 57924
640 189
641 7757
642 62838
643 2844
644 57923
645 187
646 7760
647 62834
648 2847
649 57923
650 185
651 7762
652 62831
653 2849
654 57921
655 184
656 7764
657 62827
658 2852
659 57922
660 183
661 7764
662 62824
663 2854
664 57922
665 179
666 7765
667 62821
668 2855
669 57922
670 176
671 7768
672 62818
673 2856
674 57923
675 176
676 7769
677 62815
678 2858
679 57922
680 173
681 7770
682 62813
683 2858
684 57921
685 171
686 7772
687 62812
688 2860
689 57923
690 170
691 7773
692 62810
693 2860
694 57923
695 166
696 7774
697 62807
698 2861
699 57924
700 164
701 7775
702 62807
703 2861
704 57923
705 163
706 7776
707 62805
708 2860
709 57924
710 159
711 7776
712 62804
713 2861
714 57925
715 157
716 7777
717 62804
718 2860
719 57925
720 155
721 7777
722 62804
723 2860
724 57926
725 155
726 7776
727 62803
728 2860
729 57925
730 155
731 7777
732 62802
733 2858
734 57924
735 153
736 7776
737 62803
738 2859
739 57925
740 155
741 7777
742 62802
743 2858
744 57923
745 153
746 7777
747 62802
748 2858
749 57924
750 153
751 7776
752 62802
753 2859
754 57923
755 151
756 7777
757 62802
758 2858
759 57922
760 151
761 7776
762 62802
763 2858
764 57922
765 149
766 7776
767 62801
768 2857
769 57922
770 149
771 7775
772 62801
773 2858
774 57922
775 149
776 7776
777 62800
778 2856
779 57922
780 149
781 7776
782 62800
783 2857
784 57922
785 147
786 7774
787 62801
788 2856
789 57921
790 147
791 7774
792 62800
793 2855
794 57920
795 146
796 7774
797 62800
798 2856
799 57921
800 147
801 7774
802 62800
803 2855
804 57920
805 146
806 7774
807 62800
808 2855
809 57920
810 147
811 7774
812 62800
813 2855
814 57919
815 144
816 7773
817 62800
818 2855
819 57919
820 146
821 7773
822 62800
823 2855
824 57919
825 146
826 7773
827 62800
828 2855
829 57919
830 146
831 7773
832 62799
833 2855
834 57919
835 144
836 7773
837 62800
838 2854
839 57919
840 146
841 7772
842 62799
843 2854
844 57918
845 142
846 7772
847 62799
848 2854
849 57917
850 142
851 7772
852 62799
853 2854
854 57918
855 142
856 7772
857 62798
858 2853
859 57916
860 142
861 7771
862 62798
863 2853
864 57916
865 140
866 7771
867 62798
868 2853
869 57916
870 140
871 7771
872 62798
873 2853
874 57915
875 140
876 7771
877 62797
878 2852
879 57916
880 140
881 7770
882 62797
883 2852
884 57915
885 138
886 7771
887 62797
888 2852
889 57914
890 138
891 7771
892 62797
893 2852
894 57915
895 138
896 7771
897 62797
898 2852
899 57914
900 138
901 7769
902 62796
903 2851
904 57914
905 136
906 7769
907 62796
908 2851
909 57914
910 136
911 7769
912 62796
913 2851
914 57912
915 136
916 7768
917 62795
918 2850
919 57913
920 134
921 7768
922 62795
923 2850
924 57913
925 134
926 7767
927 62794
928 2850
929 57913
930 134
931 7768
932 62794
933 2850
934 57913
935 134
936 7768
937 62794
938 2850
939 57911
940 132
941 7768
942 62794
943 2849
944 57911
945 132
946 7768
947 62794
948 2849
949 57910
950 132
951 7767
952 62794
953 2849
954 57911
955 132
956 7767
957 62794
958 2849
959 57910
960 130
961 7766
962 62794
963 2849
964 57909
965 128
966 7766
967 62794
968 2849
969 57910
970 128
971 7766
972 62793
973 2847
974 57909
975 128
976 7765
977 62793
978 2847
979 57909
980 128
981 7764
982 62793
983 2849
984 57909
985 128
986 7765
987 62793
988 2847
989 57909
990 126
991 7765
992 62793
993 2847
994 57909
995 126
996 7764
997 62793
998 2847
999 57909
1000 125
1001 7764
1002 62792
1003 2847
1004 57908
1005 126
1006 7764
1007 62792
1008 2846
1009 57906
1010 125
1011 7764
1012 62792
1013 2847
1014 57908
1015 126
1016 7764
1017 62792
1018 2846
1019 57906
1020 125
1021 7764
1022 62792
1023 2846
